{
    "repo_base":"https://mb.app.ccmob.net/mobgui-x/",
    "commands_pre":[
        "mkdir /unix",
        "mkdir /unix/etc",
        "mkdir /unix/usr",
        "mkdir /unix/home",
        "mkdir /unix/lib",
        "mkdir /unix/boot",
        "mkdir /unix/cache"
    ],
    "repo_files":[
        { "repoURL":"os/startup", "localURL":"/startup" },
        { "repoURL":"installer/cleanup", "localURL":"/.installer/cleanup" }    
    ],
    "commands_after":[
        "/.installer/cleanup",
        "reboot"
    ]
}